<?xml version="1.0" encoding="iso-8859-1"?>
<!-- Generator: Adobe Illustrator 19.0.0, SVG Export Plug-In . SVG Version: 6.00 Build 0)  -->
<svg version="1.1" id="Capa_1" xmlns="http://www.w3.org/2000/svg" xmlns:xlink="http://www.w3.org/1999/xlink" x="0px" y="0px"
	 viewBox="0 0 511.998 511.998" style="enable-background:new 0 0 511.998 511.998;" xml:space="preserve">
<g>
	<g>
		<path d="M506.374,175.865l-69.12-69.12c-7.488-7.494-19.622-7.501-27.123-0.026l-177.286,176.64
			c-2.413,2.406-4.141,5.408-5.011,8.704l-24.96,94.72c-1.741,6.605,0.16,13.638,4.986,18.47c3.654,3.648,8.557,5.626,13.581,5.626
			c1.632,0,3.277-0.211,4.89-0.634l94.726-24.954c3.29-0.87,6.298-2.598,8.704-5.018l176.64-177.28
			C513.875,195.487,513.862,183.353,506.374,175.865z M306.234,349.484l-57.837,15.238l15.238-57.837l160.019-159.437l42.016,42.016
			L306.234,349.484z"/>
	</g>
</g>
<g>
	<g>
		
			<rect x="392.636" y="151.947" transform="matrix(0.7071 -0.7071 0.7071 0.7071 -21.6974 350.1606)" width="38.393" height="98.649"/>
	</g>
</g>
<g>
	<g>
		
			<rect x="262.069" y="282.473" transform="matrix(0.7071 -0.7071 0.7071 0.7071 -152.2377 296.0675)" width="38.393" height="98.655"/>
	</g>
</g>
<g>
	<g>
		<path d="M408.32,153.599V44.159c0-21.53-16.87-38.4-38.4-38.4H38.4C16.87,5.759,0,22.63,0,44.159v423.68
			c0,21.53,16.87,38.4,38.4,38.4h331.52c21.53,0,38.4-16.87,38.4-38.4v-174.08h-38.4v174.08H38.4V44.159h331.52v109.44H408.32z"/>
	</g>
</g>
<g>
	<g>
		<path d="M126.72,111.999h-35.2c-10.605,0-19.2,8.595-19.2,19.2s8.595,19.2,19.2,19.2h35.2c10.605,0,19.2-8.595,19.2-19.2
			S137.325,111.999,126.72,111.999z"/>
	</g>
</g>
<g>
	<g>
		<path d="M318.72,111.999h-124.8c-10.605,0-19.2,8.595-19.2,19.2s8.595,19.2,19.2,19.2h124.8c10.605,0,19.2-8.595,19.2-19.2
			S329.325,111.999,318.72,111.999z"/>
	</g>
</g>
<g>
	<g>
		<path d="M126.72,195.199h-35.2c-10.605,0-19.2,8.595-19.2,19.2c0,10.605,8.595,19.2,19.2,19.2h35.2c10.605,0,19.2-8.595,19.2-19.2
			C145.92,203.794,137.325,195.199,126.72,195.199z"/>
	</g>
</g>
<g>
	<g>
		<path d="M318.72,195.199h-124.8c-10.605,0-19.2,8.595-19.2,19.2c0,10.605,8.595,19.2,19.2,19.2h124.8
			c10.605,0,19.2-8.595,19.2-19.2C337.92,203.794,329.325,195.199,318.72,195.199z"/>
	</g>
</g>
<g>
	<g>
		<path d="M126.72,278.393h-35.2c-10.605,0-19.2,8.595-19.2,19.2c0,10.605,8.595,19.2,19.2,19.2h35.2c10.605,0,19.2-8.595,19.2-19.2
			C145.92,286.988,137.325,278.393,126.72,278.393z"/>
	</g>
</g>
<g>
	<g>
		<path d="M246.4,278.393h-52.48c-10.605,0-19.2,8.595-19.2,19.2c0,10.605,8.595,19.2,19.2,19.2h52.48
			c10.605,0,19.2-8.595,19.2-19.2C265.6,286.988,257.005,278.393,246.4,278.393z"/>
	</g>
</g>
<g>
	<g>
		<path d="M126.72,361.593h-35.2c-10.605,0-19.2,8.595-19.2,19.2c0,10.605,8.595,19.2,19.2,19.2h35.2c10.605,0,19.2-8.595,19.2-19.2
			C145.92,370.188,137.325,361.593,126.72,361.593z"/>
	</g>
</g>
<g>
	<g>
		<path d="M224,361.593h-30.08c-10.605,0-19.2,8.595-19.2,19.2c0,10.605,8.595,19.2,19.2,19.2H224c10.605,0,19.2-8.595,19.2-19.2
			C243.2,370.188,234.605,361.593,224,361.593z"/>
	</g>
</g>
<g>
</g>
<g>
</g>
<g>
</g>
<g>
</g>
<g>
</g>
<g>
</g>
<g>
</g>
<g>
</g>
<g>
</g>
<g>
</g>
<g>
</g>
<g>
</g>
<g>
</g>
<g>
</g>
<g>
</g>
</svg>
